{
  "docs": [
    {
      "_id": "_design/auth",
      "language": "javascript",
      "views": {
        "by_password_auth": {
          "map": "function (doc) { doc.auths.forEach(function(auth) { auth.type === 'password' && doc.namespaces.forEach(function(namespace) { emit([namespace, auth.username], auth) })}) }"
        },
        "by_foursquare_id": {
              "map": "function(doc) {\n    doc.auths.forEach(function(auth) { \n        if (auth.type === \"foursquare\") {\n            doc.namespaces.forEach(function(ns) {\n                emit([ns, auth.id], doc._id);\n            });\n        }\n    });\n}"
            },
            "by_email": {
              "map": "function(doc) {\n    doc.contacts.forEach(function(contact) { \n        if (contact.type === \"email\" && contact.verified) {\n            doc.namespaces.forEach(function(ns) {\n                emit([ns, contact.emailAddress], doc._id);\n            });\n        }\n    });\n}"
            }
      }
    },

    {
      "_id": "e90d02e7ce5c26af0f53e8f765000b42",
      "namespaces": [
        "sevdev"
      ],
      "auths": [
        {
          "username": "sevcsik",
          "type": "password",
          "passHash": "$2y$04$Qi6yN0IaMSBgbHQi7ZZzseJIF1SrmIGwLeW2TR10ihuBEswarZjWy",
          "resetToken": null
        },
        {
          "type": "foursquare",
          "id":   "13144447"
        }
      ],
      "contacts": [
        {
          "type": "email",
          "emailAddress": "sevcsik@gmail.com",
          "verified": true,
          "verificationToken": null
         }
       ]
    }
  ]
}
